-------------------------------------------------------------------------------
Test set: CharvierGary.TicketTest
-------------------------------------------------------------------------------
Tests run: 2, Failures: 0, Errors: 0, Skipped: 0, Time elapsed: 0.067 sec
