/home/gary/Documents/MAVEN/alabonnefranquette/src/main/java/CharvierGary/Boisson.java
/home/gary/Documents/MAVEN/alabonnefranquette/src/main/java/CharvierGary/TicketTraite.java
/home/gary/Documents/MAVEN/alabonnefranquette/src/main/java/CharvierGary/EtatCommande.java
/home/gary/Documents/MAVEN/alabonnefranquette/src/main/java/CharvierGary/ElementMenu.java
/home/gary/Documents/MAVEN/alabonnefranquette/src/main/java/CharvierGary/Systeme.java
/home/gary/Documents/MAVEN/alabonnefranquette/src/main/java/CharvierGary/TicketEnPreparation.java
/home/gary/Documents/MAVEN/alabonnefranquette/src/main/java/CharvierGary/Commande.java
/home/gary/Documents/MAVEN/alabonnefranquette/src/main/java/CharvierGary/TicketEnvoye.java
/home/gary/Documents/MAVEN/alabonnefranquette/src/main/java/CharvierGary/CommandeAttenteCretionTicket.java
/home/gary/Documents/MAVEN/alabonnefranquette/src/main/java/CharvierGary/Table.java
/home/gary/Documents/MAVEN/alabonnefranquette/src/main/java/CharvierGary/Menu.java
/home/gary/Documents/MAVEN/alabonnefranquette/src/main/java/CharvierGary/TicketPretAEtreEnvoye.java
/home/gary/Documents/MAVEN/alabonnefranquette/src/main/java/CharvierGary/Plat.java
/home/gary/Documents/MAVEN/alabonnefranquette/src/main/java/CharvierGary/Carte.java
/home/gary/Documents/MAVEN/alabonnefranquette/src/main/java/CharvierGary/MenuDeCommande.java
/home/gary/Documents/MAVEN/alabonnefranquette/src/main/java/CharvierGary/CommandeAttentePaiement.java
/home/gary/Documents/MAVEN/alabonnefranquette/src/main/java/CharvierGary/CommandeAttentePreparation.java
/home/gary/Documents/MAVEN/alabonnefranquette/src/main/java/CharvierGary/EtatTicket.java
/home/gary/Documents/MAVEN/alabonnefranquette/src/main/java/CharvierGary/Entree.java
/home/gary/Documents/MAVEN/alabonnefranquette/src/main/java/CharvierGary/MenuDeCarte.java
/home/gary/Documents/MAVEN/alabonnefranquette/src/main/java/CharvierGary/CommandeAttenteChoix.java
/home/gary/Documents/MAVEN/alabonnefranquette/src/main/java/CharvierGary/Ticket.java
/home/gary/Documents/MAVEN/alabonnefranquette/src/main/java/CharvierGary/Dessert.java
/home/gary/Documents/MAVEN/alabonnefranquette/src/main/java/CharvierGary/ListeElementMenu.java
/home/gary/Documents/MAVEN/alabonnefranquette/src/main/java/CharvierGary/CommandeTerminee.java
